[
  { "2008": [["SE Marsh", 5]] },
  { "2009": [["YK Pathan", 3]] },
  { "2010": [["SR Tendulkar", 4]] },
  { "2011": [["CH Gayle", 6]] },
  { "2012": [["CH Gayle", 5]] },
  { "2013": [["MEK Hussey", 5]] },
  { "2014": [["GJ Maxwell", 4]] },
  { "2015": [["DA Warner", 4]] },
  { "2016": [["V Kohli", 5]] },
  {
    "2017": [
      ["BA Stokes", 3],
      ["NM Coulter-Nile", 3]
    ]
  }
]
